project1
…
newinsurance%>% group_by(smoker)%>% summarize(mean_age=mean(age))

## # A tibble: 2 x 2
##   smoker mean_age
##   <fct>     <dbl>
## 1 no         36.3
## 2 yes        35.3

#Grouping by 3 categorical variables simultaneously (BMI_range, sex, region):
newinsurance %>% group_by(bmi_range, sex, region) %>% summarize(mean_bmi=mean(bmi, na.rm=T))

## # A tibble: 40 x 4
## # Groups:   bmi_range, sex [10]
##    bmi_range sex    region    mean_bmi
##    <chr>     <fct>  <fct>        <dbl>
##  1 normal    female northeast     22.6
##  2 normal    female northwest     22.6
##  3 normal    female southeast     22.6
##  4 normal    female southwest     22.6
##  5 normal    male   northeast     22.7
##  6 normal    male   northwest     22.2
##  7 normal    male   southeast     22.7
##  8 normal    male   southwest     22.3
##  9 obese     female northeast     35.4
## 10 obese     female northwest     35.0
## # … with 30 more rows
…
